Country,Year,Net_forest_conversion
Algeria,1990,-8800
Argentina,1990,-182600
Aruba,1990,0
Australia,1990,-206810
Austria,1990,6250
Bahrain,1990,10
Bangladesh,1990,0
Belize,1990,-14070
Bhutan,1990,9930
Bolivia,1990,-270330
Brazil,1990,-3780940
Bulgaria,1990,4800
Burundi,1990,-8250
Cameroon,1990,-90250
Canada,1990,-47100
Cayman Islands,1990,-20
Central African Republic,1990,-30000
Chile,1990,57100
China,1990,1986000
Colombia,1990,-222260
Congo,1990,-12000
Costa Rica,1990,-5020
Cuba,1990,37700
Denmark,1990,4020
Djibouti,1990,0
Dominican Republic,1990,37760
Ecuador,1990,-90170
El Salvador,1990,-4500
Falkland Islands,1990,0
Faroe Islands,1990,0
Finland,1990,57030
French Guyana,1990,-4560
Gabon,1990,-6110
Germany,1990,5400
Gibraltar,1990,0
Greenland,1990,0
Guadeloupe,1990,-90
Guatemala,1990,-57200
Guinea,1990,-34700
Guyana,1990,-3790
Honduras,1990,-20950
Hungary,1990,10730
Iceland,1990,1280
India,1990,365300
Indonesia,1990,-1726500
Iraq,1990,1400
Ireland,1990,16870
Isle of Man,1990,0
Jamaica,1990,-30
Kuwait,1990,140
Liberia,1990,-30260
Liechtenstein,1990,0
Madagascar,1990,-66900
Malawi,1990,-42000
Maldives,1990,0
Mali,1990,-79000
Martinique,1990,90
Mauritania,1990,-5440
Mauritius,1990,90
Mayotte,1990,-340
Mexico,1990,-221030
Monaco,1990,0
Mongolia,1990,-8810
Morocco,1990,2120
Mozambique,1990,-219000
Myanmar,1990,-435000
Nauru,1990,0
Nepal,1990,10880
Netherlands,1990,1420
New Zealand,1990,47820
Nicaragua,1990,-100000
Niger,1990,-61690
Nigeria,1990,-163300
North Korea,1990,-45730
Norway,1990,-1900
Panama,1990,-16530
Papua New Guinea,1990,-12170
Paraguay,1990,-255420
Peru,1990,-115070
Poland,1990,17700
Qatar,1990,0
San Marino,1990,0
Sao Tome and Principe,1990,-30
Singapore,1990,220
Somalia,1990,-76750
South Africa,1990,-36400
South Korea,1990,-7500
Suriname,1990,-3680
Sweden,1990,10000
Switzerland,1990,4270
Syria,1990,6000
Tanzania,1990,-372000
Thailand,1990,-36300
Togo,1990,-9320
Tokelau,1990,0
Tunisia,1990,2390
Turkey,1990,36490
Uganda,1990,-41250
United States,1990,108600
Vatican,1990,0
Venezuela,1990,-287500
Vietnam,1990,240810
World,1990,-7818000
Zimbabwe,1990,-46070
Algeria,2000,33900
Argentina,2000,-316400
Aruba,2000,0
Australia,2000,-226800
Austria,2000,2510
Bahrain,2000,10
Bangladesh,2000,-3200
Belarus,2000,26110
Belize,2000,-6790
Bhutan,2000,9930
Bolivia,2000,-201540
Brazil,2000,-3950790
Bulgaria,2000,36200
Burundi,2000,0
Cameroon,2000,-69700
Canada,2000,-47980
Cape Verde,2000,300
Cayman Islands,2000,-20
Central African Republic,2000,-30000
Chile,2000,90820
China,2000,2360980
Colombia,2000,-192770
Congo,2000,-12000
Costa Rica,2000,1400
Croatia,2000,3500
Cuba,2000,49700
Denmark,2000,1490
Djibouti,2000,0
Dominican Republic,2000,10070
Ecuador,2000,-70230
El Salvador,2000,-4500
Equatorial Guinea,2000,-8360
Estonia,2000,9710
Ethiopia,2000,-73000
Falkland Islands,2000,0
Faroe Islands,2000,0
Finland,2000,-20360
French Guyana,2000,-4290
Gabon,2000,-5060
Georgia,2000,6180
Germany,2000,5500
Gibraltar,2000,0
Greenland,2000,0
Guadeloupe,2000,-70
Guatemala,2000,-48660
Guyana,2000,-4440
Honduras,2000,-20280
Hungary,2000,12520
Iceland,2000,1480
India,2000,190500
Indonesia,2000,-162080
Iraq,2000,700
Ireland,2000,9000
Isle of Man,2000,0
Jamaica,2000,3740
Kuwait,2000,140
Kyrgyzstan,2000,4880
Latvia,2000,13110
Liberia,2000,-30260
Liechtenstein,2000,0
Lithuania,2000,15000
Malawi,2000,-42000
Maldives,2000,0
Mali,2000,-79000
Martinique,2000,150
Mauritania,2000,-5440
Mauritius,2000,-350
Mayotte,2000,-130
Mexico,2000,-143800
Moldova,2000,3010
Monaco,2000,0
Mongolia,2000,-8000
Morocco,2000,16800
Mozambique,2000,-221590
Myanmar,2000,-342700
Nauru,2000,0
Nepal,2000,18130
Netherlands,2000,1400
New Zealand,2000,-230
Nicaragua,2000,-121120
Niger,2000,-12420
Nigeria,2000,-163310
North Korea,2000,-21230
Norway,2000,-1100
Panama,2000,-11420
Papua New Guinea,2000,-9910
Paraguay,2000,-342140
Peru,2000,-124800
Poland,2000,27000
Qatar,2000,0
Romania,2000,14900
Russia,2000,586710
San Marino,2000,0
Sao Tome and Principe,2000,-30
Singapore,2000,70
Slovenia,2000,1400
Somalia,2000,-76750
South Africa,2000,-36400
South Korea,2000,-8900
Spain,2000,145140
Suriname,2000,-4100
Sweden,2000,-9000
Switzerland,2000,3850
Syria,2000,4870
Tanzania,2000,-372000
Thailand,2000,107500
Togo,2000,-2960
Tokelau,2000,0
Tunisia,2000,1960
Turkey,2000,93470
Uganda,2000,-41250
Ukraine,2000,3800
United Kingdom,2000,10500
United States,2000,518400
Uruguay,2000,36230
Uzbekistan,2000,38810
Vatican,2000,0
Venezuela,2000,-164600
Vietnam,2000,160400
World,2000,-5117000
Zambia,2000,-35800
Zimbabwe,2000,-46070
Algeria,2010,7600
Argentina,2010,-223400
Aruba,2010,0
Australia,2010,709680
Austria,2010,3600
Azerbaijan,2010,9080
Bahrain,2010,20
Bangladesh,2010,-990
Belarus,2010,19900
Belgium,2010,-110
Belize,2010,-11710
Bhutan,2010,1980
Bolivia,2010,-211760
Brazil,2010,-1539180
Bulgaria,2010,19200
Burundi,2010,17140
Cameroon,2010,-56000
Canada,2010,-41300
Cape Verde,2010,300
Cayman Islands,2010,0
Central African Republic,2010,-30000
Chile,2010,174160
China,2010,1936770
Colombia,2010,-134630
Congo,2010,-12000
Costa Rica,2010,16370
Croatia,2010,400
Cuba,2010,50400
Denmark,2010,7640
Djibouti,2010,0
Dominican Republic,2010,6110
Ecuador,2010,-41800
El Salvador,2010,-4500
Equatorial Guinea,2010,-8360
Estonia,2010,17000
Ethiopia,2010,-73000
Falkland Islands,2010,0
Faroe Islands,2010,0
Finland,2010,33400
French Guyana,2010,-3300
Gabon,2010,-11880
Georgia,2010,0
Germany,2010,2000
Gibraltar,2010,0
Greenland,2010,0
Guadeloupe,2010,130
Guatemala,2010,-27360
Guyana,2010,-11690
Honduras,2010,-22330
Hungary,2010,2890
Iceland,2010,700
India,2010,266400
Iraq,2010,0
Ireland,2010,6860
Isle of Man,2010,0
Italy,2010,53810
Jamaica,2010,3800
Kuwait,2010,0
Kyrgyzstan,2010,4430
Latvia,2010,3860
Liberia,2010,-30260
Liechtenstein,2010,0
Lithuania,2010,3400
Malawi,2010,-42000
Maldives,2010,0
Mali,2010,-79000
Martinique,2010,200
Mauritania,2010,-5440
Mauritius,2010,-20
Mayotte,2010,-50
Mexico,2010,-122480
Moldova,2010,2380
Monaco,2010,0
Mongolia,2010,-1110
Montenegro,2010,0
Morocco,2010,2020
Mozambique,2010,-206430
Myanmar,2010,-289710
Nauru,2010,0
Nepal,2010,0
Netherlands,2010,-1730
New Zealand,2010,-300
Nicaragua,2010,-56120
Niger,2010,-12420
Nigeria,2010,-163310
North Korea,2010,-21230
Norway,2010,7800
Panama,2010,-11420
Papua New Guinea,2010,-30900
Paraguay,2010,-414250
Peru,2010,-171050
Poland,2010,18200
Portugal,2010,12000
Qatar,2010,0
Romania,2010,69200
Russia,2010,-41030
San Marino,2010,0
Sao Tome and Principe,2010,-620
Senegal,2010,-40000
Serbia,2010,1310
Singapore,2010,-250
Slovenia,2010,200
Somalia,2010,-76750
South Africa,2010,-36400
South Korea,2010,-10000
Spain,2010,1170
Suriname,2010,-9640
Sweden,2010,-18600
Switzerland,2010,3440
Syria,2010,3550
Tanzania,2010,-372000
Thailand,2010,-2400
Togo,2010,-2960
Tokelau,2010,0
Tunisia,2010,1530
Turkey,2010,109440
Uganda,2010,-41250
Ukraine,2010,21800
United Kingdom,2010,19200
United States,2010,275000
Uruguay,2010,37740
Uzbekistan,2010,39960
Vatican,2010,0
Venezuela,2010,-164400
Vietnam,2010,134760
World,2010,-4801000
Zambia,2010,-188180
Zimbabwe,2010,-46070
Algeria,2015,-1400
Argentina,2015,-104800
Aruba,2015,0
Austria,2015,3590
Azerbaijan,2015,14160
Bahrain,2015,20
Bangladesh,2015,0
Belarus,2015,26820
Belgium,2015,0
Belize,2015,-11160
Bhutan,2015,1980
Bolivia,2015,-238690
Brazil,2015,-1453040
Bulgaria,2015,12000
Burundi,2015,0
Cameroon,2015,-56000
Canada,2015,-37520
Cape Verde,2015,300
Cayman Islands,2015,0
Central African Republic,2015,-30000
Chile,2015,122920
China,2015,1936790
Colombia,2015,-198550
Congo,2015,-13800
Costa Rica,2015,16370
Croatia,2015,3420
Cuba,2015,11600
Denmark,2015,750
Djibouti,2015,40
Ecuador,2015,-64270
El Salvador,2015,-4500
Equatorial Guinea,2015,-8360
Estonia,2015,3480
Ethiopia,2015,-73000
Falkland Islands,2015,0
Faroe Islands,2015,0
French Guyana,2015,-3430
Gabon,2015,-11880
Georgia,2015,0
Germany,2015,0
Gibraltar,2015,0
Greenland,2015,0
Guadeloupe,2015,-60
Guatemala,2015,-11600
Guyana,2015,-9200
Honduras,2015,-20910
Hungary,2015,-1560
Iceland,2015,640
India,2015,266400
Indonesia,2015,-578940
Iraq,2015,0
Ireland,2015,5470
Isle of Man,2015,0
Jamaica,2015,3890
Kuwait,2015,0
Kyrgyzstan,2015,12710
Latvia,2015,3870
Liberia,2015,-30260
Liechtenstein,2015,0
Lithuania,2015,2800
Malawi,2015,-42000
Maldives,2015,0
Mali,2015,0
Martinique,2015,200
Mauritania,2015,-5450
Mauritius,2015,90
Mayotte,2015,-50
Mexico,2015,-127770
Moldova,2015,20
Monaco,2015,0
Mongolia,2015,-1110
Montenegro,2015,0
Morocco,2015,11560
Mozambique,2015,-239250
Myanmar,2015,-289710
Nauru,2015,0
Nepal,2015,0
Netherlands,2015,930
New Zealand,2015,9200
Nicaragua,2015,-100000
Niger,2015,-12420
Nigeria,2015,-163300
North Korea,2015,-21230
Norway,2015,7800
Panama,2015,-11410
Papua New Guinea,2015,-33530
Paraguay,2015,-279340
Peru,2015,-172830
Poland,2015,12600
Qatar,2015,0
Romania,2015,13610
Russia,2015,76230
San Marino,2015,0
Sao Tome and Principe,2015,-620
Senegal,2015,-40000
Serbia,2015,620
Singapore,2015,-180
Slovenia,2015,-2030
Somalia,2015,-76750
South Africa,2015,-36400
South Korea,2015,-10000
Spain,2015,4200
Sudan,2015,-170080
Suriname,2015,-11080
Sweden,2015,0
Switzerland,2015,3440
Tanzania,2015,-469000
Thailand,2015,-37600
Togo,2015,-2960
Tokelau,2015,0
Tunisia,2015,1530
Turkey,2015,118010
Uganda,2015,-41250
Ukraine,2015,6600
Uzbekistan,2015,28050
Vatican,2015,0
Venezuela,2015,-90420
Vietnam,2015,116250
World,2015,-5150000
Zambia,2015,-188210
Zimbabwe,2015,-46070
