Year,Global,NHem,SHem,24N-90N,24S-24N,90S-24S,64N-90N,44N-64N,24N-44N,EQU-24N,24S-EQU,44S-24S,64S-44S,90S-64S
1880,-0.2,-0.35,-0.06,-0.42,-0.15,-0.06,-1.06,-0.62,-0.2,-0.24,-0.06,-0.02,-0.08,0.35
1881,-0.11,-0.2,-0.03,-0.3,-0.01,-0.06,-0.66,-0.46,-0.13,-0.04,0.02,-0.06,-0.02,0.33
1882,-0.1,-0.18,-0.01,-0.23,-0.09,0.03,-1.36,-0.25,-0.01,-0.1,-0.09,0.03,0.08,0.37
1883,-0.2,-0.31,-0.09,-0.35,-0.21,-0.02,-0.32,-0.62,-0.18,-0.23,-0.2,-0.01,0,0.33
1884,-0.28,-0.43,-0.13,-0.57,-0.17,-0.12,-1.31,-0.62,-0.4,-0.2,-0.14,-0.15,-0.05,0.36
1885,-0.31,-0.42,-0.21,-0.61,-0.17,-0.2,-1.19,-0.72,-0.41,-0.1,-0.23,-0.27,-0.07,0.34
1886,-0.3,-0.39,-0.22,-0.49,-0.24,-0.2,-1.24,-0.47,-0.36,-0.23,-0.25,-0.18,-0.21,0.23
1887,-0.33,-0.38,-0.29,-0.47,-0.27,-0.27,-1.58,-0.58,-0.18,-0.23,-0.32,-0.24,-0.29,0.16
1888,-0.2,-0.24,-0.17,-0.43,0.07,-0.34,-1.46,-0.48,-0.21,0.06,0.07,-0.29,-0.37,0.12
1889,-0.11,-0.17,-0.06,-0.27,0.05,-0.17,-0.9,-0.19,-0.19,-0.01,0.1,-0.15,-0.16,0.15
1890,-0.37,-0.41,-0.33,-0.46,-0.38,-0.26,-1.36,-0.47,-0.27,-0.32,-0.43,-0.16,-0.39,0
1891,-0.24,-0.25,-0.24,-0.37,-0.15,-0.24,-1.32,-0.26,-0.25,-0.06,-0.25,-0.2,-0.27,0.04
1892,-0.27,-0.32,-0.22,-0.33,-0.3,-0.16,-1.36,-0.38,-0.1,-0.32,-0.29,-0.03,-0.33,0
1893,-0.3,-0.41,-0.19,-0.4,-0.4,-0.07,-0.91,-0.41,-0.28,-0.43,-0.37,0.04,-0.21,-0.03
1894,-0.31,-0.38,-0.23,-0.29,-0.39,-0.22,-1.36,-0.22,-0.07,-0.53,-0.24,-0.15,-0.31,-0.16
1895,-0.22,-0.29,-0.14,-0.36,-0.14,-0.19,-0.99,-0.42,-0.16,-0.19,-0.08,-0.2,-0.13,-0.06
1896,-0.15,-0.22,-0.08,-0.35,0.02,-0.18,-1.3,-0.39,-0.09,-0.02,0.07,-0.15,-0.21,-0.01
1897,-0.11,-0.14,-0.09,-0.31,0.16,-0.28,-0.81,-0.35,-0.16,0.14,0.18,-0.2,-0.36,0
1898,-0.29,-0.28,-0.29,-0.28,-0.29,-0.29,-1.29,-0.05,-0.18,-0.28,-0.3,-0.26,-0.3,0.03
1899,-0.16,-0.18,-0.15,-0.18,-0.14,-0.18,-1.06,0.02,-0.1,-0.16,-0.11,-0.13,-0.22,0.09
1900,-0.09,-0.05,-0.13,-0.13,0.13,-0.35,-0.63,-0.06,-0.05,0.08,0.17,-0.31,-0.38,0.07
1901,-0.15,-0.09,-0.2,-0.12,-0.05,-0.29,-0.58,-0.02,-0.07,-0.03,-0.08,-0.3,-0.26,-0.03
1902,-0.28,-0.32,-0.23,-0.5,-0.06,-0.34,-1.61,-0.42,-0.26,-0.03,-0.1,-0.27,-0.42,0.01
1903,-0.36,-0.36,-0.36,-0.42,-0.32,-0.34,-0.52,-0.32,-0.46,-0.26,-0.38,-0.37,-0.25,-0.59
1904,-0.45,-0.46,-0.43,-0.48,-0.46,-0.39,-0.37,-0.55,-0.47,-0.43,-0.49,-0.36,-0.38,-1.25
1905,-0.28,-0.29,-0.27,-0.39,-0.13,-0.38,-0.23,-0.17,-0.57,-0.15,-0.12,-0.38,-0.34,-0.37
1906,-0.23,-0.21,-0.24,-0.22,-0.21,-0.25,-0.38,0.02,-0.33,-0.2,-0.22,-0.23,-0.22,-0.65
1907,-0.4,-0.47,-0.33,-0.58,-0.34,-0.3,-0.8,-0.71,-0.45,-0.31,-0.37,-0.25,-0.3,-1.18
1908,-0.44,-0.47,-0.41,-0.48,-0.47,-0.34,-0.51,-0.52,-0.46,-0.45,-0.5,-0.31,-0.38,0.66
1909,-0.47,-0.48,-0.47,-0.49,-0.51,-0.41,-0.84,-0.51,-0.39,-0.47,-0.55,-0.38,-0.41,-0.49
1910,-0.43,-0.44,-0.42,-0.38,-0.53,-0.33,-0.77,-0.15,-0.43,-0.52,-0.55,-0.32,-0.32,0.27
1911,-0.44,-0.41,-0.48,-0.4,-0.45,-0.48,-0.44,-0.37,-0.42,-0.43,-0.48,-0.43,-0.53,0.14
1912,-0.35,-0.48,-0.23,-0.6,-0.2,-0.31,-0.75,-0.72,-0.48,-0.29,-0.11,-0.37,-0.13,-1.54
1913,-0.35,-0.43,-0.25,-0.42,-0.31,-0.31,-0.64,-0.29,-0.45,-0.45,-0.17,-0.28,-0.31,-0.92
1914,-0.16,-0.19,-0.13,-0.24,-0.07,-0.2,-0.64,-0.08,-0.24,-0.11,-0.03,-0.17,-0.23,-0.33
1915,-0.11,-0.1,-0.12,-0.19,0.01,-0.19,-0.65,-0.08,-0.13,0.04,-0.02,-0.1,-0.23,-1.99
1916,-0.33,-0.36,-0.32,-0.31,-0.43,-0.23,-0.43,-0.45,-0.2,-0.43,-0.43,-0.22,-0.17,-1.21
1917,-0.4,-0.53,-0.28,-0.44,-0.6,-0.1,-0.81,-0.4,-0.37,-0.67,-0.52,-0.17,0.05,0.2
1918,-0.26,-0.33,-0.18,-0.36,-0.26,-0.15,-1.29,-0.15,-0.24,-0.28,-0.23,-0.08,-0.23,-0.13
1919,-0.23,-0.34,-0.11,-0.44,-0.13,-0.15,-1.03,-0.46,-0.26,-0.2,-0.06,-0.08,-0.22,0.27
1920,-0.26,-0.27,-0.25,-0.21,-0.26,-0.32,-0.07,-0.09,-0.31,-0.37,-0.16,-0.21,-0.44,-0.86
1921,-0.21,-0.09,-0.32,0.02,-0.27,-0.37,-0.19,0.23,-0.05,-0.27,-0.26,-0.26,-0.49,-0.69
1922,-0.27,-0.26,-0.28,-0.22,-0.31,-0.26,-0.46,-0.33,-0.09,-0.32,-0.31,-0.24,-0.27,-0.22
1923,-0.24,-0.18,-0.29,-0.11,-0.29,-0.29,0.06,-0.04,-0.21,-0.29,-0.28,-0.27,-0.28,-0.51
1924,-0.28,-0.16,-0.39,-0.11,-0.24,-0.49,0.16,-0.16,-0.16,-0.23,-0.26,-0.39,-0.6,-0.66
1925,-0.2,-0.09,-0.3,-0.02,-0.21,-0.37,-0.27,0.26,-0.12,-0.19,-0.22,-0.24,-0.55,-0.76
1926,-0.09,0.03,-0.2,0.03,0.04,-0.39,0.32,0.24,-0.19,0.04,0.04,-0.33,-0.46,-0.56
1927,-0.2,-0.11,-0.29,-0.13,-0.13,-0.38,-0.22,-0.14,-0.1,-0.08,-0.17,-0.32,-0.41,-1.47
1928,-0.21,-0.08,-0.33,-0.06,-0.13,-0.47,0.43,-0.08,-0.19,-0.11,-0.15,-0.32,-0.62,-2.22
1929,-0.36,-0.31,-0.4,-0.36,-0.26,-0.49,-0.12,-0.51,-0.34,-0.24,-0.28,-0.4,-0.57,-1.14
1930,-0.13,0.02,-0.28,0.08,-0.1,-0.39,0.37,0.15,-0.06,-0.07,-0.13,-0.31,-0.42,-2.54
1931,-0.09,0.05,-0.22,0.03,0.04,-0.39,0.37,0.08,-0.11,0.08,0,-0.41,-0.31,-0.43
1932,-0.17,-0.03,-0.29,0.04,-0.16,-0.38,0.15,0.3,-0.15,-0.14,-0.17,-0.24,-0.56,-0.98
1933,-0.28,-0.25,-0.32,-0.23,-0.28,-0.33,-0.4,-0.39,-0.09,-0.28,-0.29,-0.22,-0.46,-1.11
1934,-0.13,0,-0.27,0.18,-0.26,-0.28,0.6,0.39,-0.08,-0.26,-0.26,-0.22,-0.34,-0.48
1935,-0.19,-0.09,-0.29,-0.03,-0.21,-0.33,0.08,0.06,-0.12,-0.18,-0.23,-0.28,-0.34,-1.56
1936,-0.15,-0.03,-0.26,-0.03,-0.13,-0.28,0.12,0.17,-0.21,-0.04,-0.23,-0.27,-0.28,0.09
1937,-0.02,0.13,-0.17,0.19,-0.05,-0.19,1.02,0.07,0.02,0.04,-0.14,-0.21,-0.14,0.57
1938,-0.02,0.14,-0.2,0.36,-0.25,-0.1,1.16,0.44,0.06,-0.18,-0.31,-0.08,-0.08,-0.89
1939,-0.03,0.08,-0.13,0.23,-0.16,-0.1,0.46,0.33,0.1,-0.15,-0.18,-0.05,-0.1,-1.72
1940,0.08,0.14,0.04,0.09,0.2,-0.08,0.83,0.03,-0.1,0.21,0.18,0.01,-0.21,-0.01
1941,0.13,0.16,0.11,-0.04,0.39,-0.07,-0.26,-0.11,0.07,0.46,0.33,0.03,-0.18,-0.43
1942,0.1,0.15,0.05,0.13,0.14,0.01,0.31,0,0.15,0.17,0.12,0.08,-0.05,-0.86
1943,0.14,0.21,0.05,0.37,0,0.08,1.14,0.33,0.16,-0.02,0.02,0.14,0.01,1.19
1944,0.26,0.28,0.24,0.39,0.22,0.18,0.97,0.5,0.14,0.12,0.32,0.33,-0.01,-0.17
1945,0.12,0.09,0.16,0.09,0.22,0.02,0.41,-0.02,0.06,0.1,0.34,0.14,-0.04,-1.82
1946,-0.03,0.07,-0.13,0.08,-0.01,-0.18,-0.19,0.02,0.2,0.06,-0.07,-0.18,-0.16,0.11
1947,-0.04,0.05,-0.13,0.14,-0.1,-0.15,0.96,-0.15,0.06,-0.09,-0.11,-0.16,-0.11,0.08
1948,-0.09,0,-0.18,0.14,-0.18,-0.21,0.05,0.36,0.03,-0.21,-0.14,-0.19,-0.16,-0.9
1949,-0.09,-0.01,-0.16,0.12,-0.17,-0.18,0.19,0.17,0.07,-0.21,-0.13,-0.15,-0.13,-1.27
1950,-0.17,-0.16,-0.19,-0.08,-0.27,-0.13,0.03,-0.34,0.04,-0.27,-0.26,-0.05,-0.21,-0.69
1951,-0.06,0.05,-0.18,0.07,-0.05,-0.22,0,0.03,0.12,0.02,-0.13,-0.2,-0.21,-0.17
1952,0.01,0.06,-0.04,0.09,0.02,-0.09,0.1,-0.07,0.18,0.01,0.03,-0.1,0,-0.39
1953,0.08,0.23,-0.07,0.33,0.06,-0.16,0.82,0.37,0.15,0.07,0.05,-0.1,-0.13,-1.26
1954,-0.12,-0.04,-0.21,0.03,-0.21,-0.15,0.58,-0.2,-0.01,-0.14,-0.28,-0.16,-0.04,-0.75
1955,-0.14,-0.1,-0.21,0.02,-0.32,-0.08,-0.45,-0.07,0.23,-0.27,-0.37,-0.16,-0.18,1.36
1956,-0.2,-0.25,-0.15,-0.24,-0.32,0,-0.22,-0.47,-0.1,-0.27,-0.37,-0.11,0,0.62
1957,0.03,0.04,0.03,0.02,0.07,0,0.02,0.21,-0.11,0.07,0.08,-0.08,-0.09,0.44
1958,0.06,0.16,-0.03,0.09,0.2,-0.16,-0.16,0.18,0.13,0.26,0.15,-0.09,-0.07,-0.63
1959,0.03,0.11,-0.04,0.15,0.07,-0.13,0.5,0.18,0.02,0.05,0.08,-0.04,-0.15,-0.36
1960,-0.03,0.08,-0.13,0.09,0.01,-0.2,0.36,-0.06,0.1,0.06,-0.03,-0.1,-0.04,-0.85
1961,0.05,0.08,0.03,0.18,-0.03,0.04,-0.18,0.37,0.17,-0.07,0.01,0.11,-0.11,0.13
1962,0.02,0.14,-0.09,0.27,-0.04,-0.13,0.58,0.34,0.14,-0.04,-0.04,0.06,-0.09,-0.89
1963,0.06,0.15,-0.03,0.16,0.11,-0.11,-0.05,0.32,0.13,0.13,0.09,-0.11,-0.2,0.07
1964,-0.2,-0.2,-0.2,-0.24,-0.14,-0.25,-0.68,-0.22,-0.11,-0.14,-0.13,-0.3,-0.09,-0.42
1965,-0.1,-0.13,-0.07,-0.17,-0.03,-0.13,-0.2,-0.24,-0.11,-0.08,0.01,-0.21,0,-0.09
1966,-0.05,0,-0.09,-0.12,0.08,-0.16,-0.67,-0.16,0.08,0.17,0,-0.24,-0.17,0.15
1967,-0.02,0.03,-0.08,0.13,-0.14,-0.02,0.44,0.27,-0.06,-0.11,-0.16,-0.07,-0.07,0.26
1968,-0.07,-0.05,-0.08,-0.08,-0.06,-0.07,-0.16,-0.02,-0.08,-0.01,-0.1,-0.12,0.02,-0.13
1969,0.07,-0.01,0.15,-0.26,0.32,0.05,0.05,-0.59,-0.15,0.35,0.29,0.02,0.14,0.02
1970,0.03,-0.03,0.09,-0.1,0.06,0.11,-0.16,-0.13,-0.06,0.06,0.06,0.09,0,0.4
1971,-0.09,-0.15,-0.03,-0.06,-0.26,0.1,-0.05,0,-0.1,-0.3,-0.22,0.04,0.11,0.31
1972,0.01,-0.18,0.21,-0.35,0.16,0.18,-0.45,-0.49,-0.22,0.06,0.26,0.14,0.02,0.62
1973,0.15,0.1,0.2,0.13,0.17,0.16,0.2,0.26,0.02,0.06,0.27,0.2,-0.01,0.37
1974,-0.08,-0.19,0.04,-0.17,-0.2,0.18,-0.28,-0.1,-0.18,-0.23,-0.16,0.21,-0.06,0.6
1975,-0.01,-0.05,0.01,0.12,-0.22,0.12,0.22,0.36,-0.05,-0.3,-0.14,0.13,0.04,0.27
1976,-0.11,-0.21,-0.02,-0.25,-0.11,0.02,-0.04,-0.33,-0.28,-0.14,-0.08,0.09,0.1,-0.37
1977,0.18,0.12,0.24,0.14,0.16,0.26,0.23,0.22,0.07,0.09,0.22,0.22,0.37,0.14
1978,0.07,0.02,0.11,-0.03,0.08,0.14,-0.07,0.01,-0.03,0.1,0.07,0.2,0.16,-0.13
1979,0.16,0.08,0.25,-0.03,0.25,0.24,-0.58,0.06,0.09,0.23,0.26,0.32,0.38,-0.29
1980,0.27,0.16,0.38,0.06,0.29,0.45,0.31,0.01,0.02,0.31,0.28,0.35,0.37,0.98
1981,0.32,0.38,0.26,0.5,0.18,0.34,1.28,0.77,0.09,0.21,0.15,0.29,0.37,0.5
1982,0.13,0.06,0.2,-0.07,0.26,0.14,-0.3,0.07,-0.08,0.24,0.29,0.18,0.3,-0.29
1983,0.31,0.26,0.36,0.24,0.43,0.21,0.3,0.67,-0.05,0.29,0.57,0.2,0.29,0.05
1984,0.16,0.04,0.27,0.03,0.18,0.26,0.38,0.07,-0.12,0.07,0.3,0.17,0.24,0.6
1985,0.12,-0.01,0.24,-0.03,0.1,0.29,0.37,-0.27,-0.01,0.03,0.17,0.29,0.39,0.07
1986,0.19,0.13,0.25,0.1,0.23,0.22,0.05,0.24,0.04,0.17,0.29,0.26,0.26,-0.02
1987,0.33,0.27,0.41,0.07,0.59,0.26,-0.28,0.13,0.14,0.56,0.62,0.33,0.21,0.16
1988,0.4,0.37,0.44,0.4,0.38,0.44,0.76,0.5,0.23,0.31,0.44,0.39,0.18,1.14
1989,0.29,0.29,0.29,0.42,0.15,0.34,0.41,0.67,0.27,0.09,0.22,0.37,0.25,0.39
1990,0.44,0.51,0.37,0.61,0.37,0.36,0.59,0.83,0.48,0.36,0.39,0.38,0.33,0.34
1991,0.42,0.41,0.44,0.46,0.39,0.44,0.75,0.59,0.28,0.34,0.44,0.34,0.34,1.03
1992,0.23,0.12,0.33,0.07,0.3,0.28,-0.19,0.37,-0.03,0.19,0.4,0.21,0.33,0.42
1993,0.24,0.2,0.29,0.13,0.33,0.23,0.64,0.23,-0.08,0.29,0.38,0.26,0.35,-0.11
1994,0.32,0.36,0.27,0.43,0.31,0.21,0.37,0.46,0.43,0.26,0.37,0.27,0.25,-0.12
1995,0.46,0.58,0.34,0.7,0.44,0.24,1.4,0.94,0.33,0.39,0.48,0.32,0.16,0.09
1996,0.34,0.27,0.41,0.25,0.33,0.45,0.79,0.19,0.13,0.3,0.36,0.35,0.31,1.11
1997,0.48,0.53,0.43,0.55,0.52,0.35,0.78,0.87,0.27,0.51,0.53,0.44,0.38,0.01
1998,0.63,0.73,0.54,0.8,0.71,0.36,0.91,0.92,0.69,0.62,0.8,0.44,0.32,0.21
1999,0.42,0.51,0.32,0.74,0.25,0.33,0.47,0.83,0.77,0.18,0.32,0.5,0.16,0.08
2000,0.42,0.51,0.33,0.71,0.27,0.34,1.1,0.76,0.56,0.22,0.33,0.47,0.1,0.37
2001,0.55,0.64,0.45,0.8,0.44,0.44,1.04,0.81,0.72,0.41,0.46,0.58,0.2,0.48
2002,0.63,0.71,0.56,0.82,0.6,0.48,1.27,0.96,0.59,0.55,0.66,0.49,0.29,0.88
2003,0.62,0.72,0.52,0.81,0.63,0.41,1.43,0.94,0.53,0.6,0.67,0.47,0.23,0.56
2004,0.55,0.68,0.42,0.75,0.56,0.32,0.63,0.92,0.69,0.56,0.57,0.49,0.21,-0.07
2005,0.69,0.84,0.55,0.99,0.64,0.46,1.99,1.16,0.56,0.61,0.67,0.51,0.21,0.79
2006,0.63,0.79,0.48,0.96,0.56,0.4,1.65,1.05,0.68,0.55,0.58,0.54,0.19,0.37
2007,0.66,0.83,0.49,1.09,0.47,0.48,1.9,1.3,0.69,0.45,0.5,0.54,0.06,1.16
2008,0.54,0.65,0.42,0.87,0.39,0.4,1.36,1.03,0.62,0.33,0.44,0.55,0.1,0.47
2009,0.64,0.7,0.59,0.74,0.68,0.5,1.2,0.59,0.68,0.66,0.71,0.61,0.18,0.81
2010,0.72,0.88,0.55,0.99,0.69,0.48,1.97,0.86,0.75,0.72,0.66,0.66,0.23,0.37
2011,0.6,0.71,0.49,0.93,0.38,0.58,2.06,0.91,0.58,0.39,0.37,0.68,0.26,0.92
2012,0.63,0.77,0.5,0.98,0.52,0.45,1.84,0.9,0.74,0.47,0.57,0.59,0.25,0.34
2013,0.66,0.76,0.55,0.88,0.58,0.54,1.17,1.03,0.7,0.58,0.57,0.64,0.3,0.67
2014,0.75,0.91,0.58,1.06,0.67,0.54,1.82,1.13,0.77,0.7,0.64,0.75,0.23,0.49
2015,0.87,1.13,0.62,1.27,0.91,0.41,1.73,1.46,1.01,0.93,0.9,0.75,0.19,-0.29
